{
  "type": "service_account",
  "project_id": "gigstr-staging",
  "private_key_id": "41049c68e6f03d49abc41ccc0117ebb29ac8be0c",
  "private_key": "-----BEGIN PRIVATE KEY-----\nMIIEugIBADANBgkqhkiG9w0BAQEFAASCBKQwggSgAgEAAoIBAQChm0ysilRQzWGM\nZ1uloFgdS4RH18VCrRhmbCd5tpVTHgft9SBh+oPdgvj5TFuaKeEOggZCgeW5srcS\ncZkiyoyn2wLXXS5TVRjXR+H0dLI3nZZynnNo8uM3V3jTxGiwF4OrAFIzzbLsZ+fD\nCBz70DCxPNFZ/ZRq7aF1X15orbgoqQc2aDegyEV9wExlSHew4hRmMgfT/eYHExd8\n1+sjp4liF+D+kDrgkfmn1oXfOtMFA4DaT653ZCjKbi4ui9hsvsSZpypdDNvSSnHb\nHIxYc7KiSqZs8c6113groLtcTvSVQYXhM8UaGqnNoosydDjFPAAY6Ribj5BAo0Qi\nPlHizlItAgMBAAECggEABQrwiI3EdcUC3zu2a2OmfDuIBCnieOMn2MJVNQIShMZy\nHuXAPe5wQPA+TqEoVpYp9KbwBRFCltnRxpyO17wUSYSXARtiP61vGgCfN16Q1RVw\nxWDWXxb9KhPrrEf7sEr7i9F1vzIS/Dd9zuMo7F6htlYcfj9gaznBCQWRz5hkH7ih\nxfK58QBmWn7ReLw5Q0NMSu151l184GNlvqm0tYvXg+AwlZVSIm/5UElleNhM0XFQ\n2o5HNLzQQwbfjQtx7Kx0hxC5sz8zYF/OndQBZWlpZWVzeNLTd7uxSdd3oUTEdIj2\nyWYH54k92bDkR0FCVwR85Lig9N8U21ahJ8uKLhJ2jQKBgQDfesrRavHS/bwHQimp\nMug+kiR+hOFYkrdT6hoNMFKvMXrfCXgBWDol+BaBF67u4myUuuNtrPIOSdvAvMZM\ngcCzsDM4Lhf7pNAuOUGt/pXpLG0EYFLojBNbiml/1HPizsqY1LE85GuVm89IiyBC\ns4VuATFpL7zcHjzlTEP8yAoSCwKBgQC5H5LlzmS8fx5wAXvxe4b4+gMs8Y8QqYbv\ngUjmLllZ6YvMyGqBawleO12nnOMvpyRXq9yylJ1Kt8LNGEQcXVzN/7Qxx7FS5hmf\nsAxJtMYGsvlwsVMgbbh3kjltQvSEJ633ZMl5HeF6um698N5W7S5h3vGve9d+oOY+\n/HKC+GLHpwJ/A33nrV3+aU2Noo9mFz60YkXmTBPHcZrZQnZl8c7Pe+1J/jInrd2z\nCuTVdS7pjNH84FYLN6t8HL0KsfhBIPDmEeiu5DHULhplJlO+svlHXl1TVr4qjXei\n1ctT2qt3JBQXFkw8eLcY9z13/6os1t33N8DNBNe6G7ZdPTfz1/9IKQKBgCzWMd0J\nBSsGWtfj9CIDuigZXaWICA+QD8d4d7CQb0GwqBR8QheAVi+Fj2RmQjwrbkjxri1u\ngz4yjbLg+rYoAq8+DGW2KQOcCX68w+0iJIhA1ttth2WmTXRgbRpCijhr592wgn+c\nNh1khCfq697/6Sj5N246P3JDBCEjQZTpFfunAoGAKoJbRtrSCtlZv/rGPER3QZ0t\nJNqMJHp43D8fftwL3H/Z+mu79W6ZRv5OQYjy7orUc4IASSonXEZog+TjfSqELoz7\nuBkgnqbyMGRVXL4TUvsG8IYUpmZaRVSxGCkEV8W/nqkhOktj6ODV9DlE0Ob4c/sb\nbfsjX0o8Jt7pVxjmbis=\n-----END PRIVATE KEY-----\n",
  "client_email": "firebase-adminsdk-y9xx0@gigstr-staging.iam.gserviceaccount.com",
  "client_id": "117658309455131259836",
  "auth_uri": "https://accounts.google.com/o/oauth2/auth",
  "token_uri": "https://accounts.google.com/o/oauth2/token",
  "auth_provider_x509_cert_url": "https://www.googleapis.com/oauth2/v1/certs",
  "client_x509_cert_url": "https://www.googleapis.com/robot/v1/metadata/x509/firebase-adminsdk-y9xx0%40gigstr-staging.iam.gserviceaccount.com"
}
